{
  "images":[
    {
      "id":1601,
      "name":"CentOS 5.8 x64",
      "distribution":"CentOS",
      "slug":"centos-5-8-x64",
      "public":true,
      "regions":[
        "nyc1",
        "ams1",
        "sfo1",
        "nyc2",
        "ams2",
        "sgp1",
        "lon1"
      ],
      "created_at":"2012-04-09T11:17:11Z"
    },
    {
      "id":1602,
      "name":"CentOS 5.8 x32",
      "distribution":"CentOS",
      "slug":"centos-5-8-x32",
      "public":true,
      "regions":[
        "nyc1",
        "ams1",
        "sfo1",
        "nyc2",
        "ams2",
        "sgp1",
        "lon1"
      ],
      "created_at":"2012-04-09T11:30:07Z"
    },
    {
      "id":12573,
      "name":"Debian 6.0 x64",
      "distribution":"Debian",
      "slug":"debian-6-0-x64",
      "public":true,
      "regions":[
        "nyc1",
        "ams1",
        "sfo1",
        "nyc2",
        "ams2",
        "sgp1",
        "lon1"
      ],
      "created_at":"2012-08-30T21:06:17Z"
    },
    {
      "id":12575,
      "name":"Debian 6.0 x32",
      "distribution":"Debian",
      "slug":"debian-6-0-x32",
      "public":true,
      "regions":[
        "nyc1",
        "ams1",
        "sfo1",
        "nyc2",
        "ams2",
        "sgp1",
        "lon1"
      ],
      "created_at":"2012-08-30T22:51:48Z"
    },
    {
      "id":14097,
      "name":"Ubuntu 10.04 x64",
      "distribution":"Ubuntu",
      "slug":"ubuntu-10-04-x64",
      "public":true,
      "regions":[
        "nyc1",
        "ams1",
        "sfo1",
        "nyc2",
        "ams2",
        "sgp1",
        "lon1"
      ],
      "created_at":"2012-09-06T23:08:46Z"
    },
    {
      "id":14098,
      "name":"Ubuntu 10.04 x32",
      "distribution":"Ubuntu",
      "slug":"ubuntu-10-04-x32",
      "public":true,
      "regions":[
        "nyc1",
        "ams1",
        "sfo1",
        "nyc2",
        "ams2",
        "sgp1",
        "lon1"
      ],
      "created_at":"2012-09-06T23:46:01Z"
    },
    {
      "id":376568,
      "name":"CentOS 6.4 x32",
      "distribution":"CentOS",
      "slug":"centos-6-4-x32",
      "public":true,
      "regions":[
        "nyc1",
        "ams1",
        "sfo1",
        "nyc2",
        "ams2",
        "sgp1",
        "lon1"
      ],
      "created_at":"2013-05-28T21:58:58Z"
    },
    {
      "id":562354,
      "name":"CentOS 6.4 x64",
      "distribution":"CentOS",
      "slug":"centos-6-4-x64",
      "public":true,
      "regions":[
        "nyc1",
        "ams1",
        "sfo1",
        "nyc2",
        "ams2",
        "sgp1",
        "lon1"
      ],
      "created_at":"2013-07-24T20:45:07Z"
    },
    {
      "id":3100616,
      "name":"Ubuntu 12.04.4 x32",
      "distribution":"Ubuntu",
      "slug":"ubuntu-12-04-x32",
      "public":true,
      "regions":[
        "nyc1",
        "ams1",
        "sfo1",
        "nyc2",
        "ams2",
        "sgp1",
        "lon1"
      ],
      "created_at":"2014-04-09T18:57:23Z"
    },
    {
      "id":3101045,
      "name":"Ubuntu 12.04.4 x64",
      "distribution":"Ubuntu",
      "slug":"ubuntu-12-04-x64",
      "public":true,
      "regions":[
        "nyc1",
        "ams1",
        "sfo1",
        "nyc2",
        "ams2",
        "sgp1",
        "lon1"
      ],
      "created_at":"2014-04-09T19:31:25Z"
    },
    {
      "id":3102721,
      "name":"Fedora 19 x32",
      "distribution":"Fedora",
      "slug":"fedora-19-x32",
      "public":true,
      "regions":[
        "nyc1",
        "ams1",
        "sfo1",
        "nyc2",
        "ams2",
        "sgp1",
        "lon1"
      ],
      "created_at":"2014-04-09T20:56:56Z"
    },
    {
      "id":3102879,
      "name":"Fedora 19 x64",
      "distribution":"Fedora",
      "slug":"fedora-19-x64",
      "public":true,
      "regions":[
        "nyc1",
        "ams1",
        "sfo1",
        "nyc2",
        "ams2",
        "sgp1",
        "lon1"
      ],
      "created_at":"2014-04-09T21:09:59Z"
    },
    {
      "id":3121555,
      "name":"Ghost 0.4.2 on Ubuntu 12.04",
      "distribution":"Ubuntu",
      "slug":"ghost",
      "public":true,
      "regions":[
        "nyc1",
        "ams1",
        "sfo1",
        "nyc2",
        "ams2",
        "sgp1",
        "lon1"
      ],
      "created_at":"2014-04-10T21:43:46Z"
    },
    {
      "id":3243143,
      "name":"Fedora 20 x32",
      "distribution":"Fedora",
      "slug":"fedora-20-x32",
      "public":true,
      "regions":[
        "nyc1",
        "ams1",
        "sfo1",
        "nyc2",
        "ams2",
        "sgp1",
        "lon1"
      ],
      "created_at":"2014-04-18T21:26:51Z"
    },
    {
      "id":3243145,
      "name":"Fedora 20 x64",
      "distribution":"Fedora",
      "slug":"fedora-20-x64",
      "public":true,
      "regions":[
        "nyc1",
        "ams1",
        "sfo1",
        "nyc2",
        "ams2",
        "sgp1",
        "lon1"
      ],
      "created_at":"2014-04-18T21:27:31Z"
    },
    {
      "id":3445812,
      "name":"Debian 7.0 x64",
      "distribution":"Debian",
      "slug":"debian-7-0-x64",
      "public":true,
      "regions":[
        "nyc1",
        "ams1",
        "sfo1",
        "nyc2",
        "ams2",
        "sgp1",
        "lon1"
      ],
      "created_at":"2014-05-02T18:16:21Z"
    },
    {
      "id":3445920,
      "name":"Debian 7.0 x32",
      "distribution":"Debian",
      "slug":"debian-7-0-x32",
      "public":true,
      "regions":[
        "nyc1",
        "ams1",
        "sfo1",
        "nyc2",
        "ams2",
        "sgp1",
        "lon1"
      ],
      "created_at":"2014-05-02T18:20:51Z"
    },
    {
      "id":3448641,
      "name":"CentOS 6.5 x64",
      "distribution":"CentOS",
      "slug":"centos-6-5-x64",
      "public":true,
      "regions":[
        "nyc1",
        "ams1",
        "sfo1",
        "nyc2",
        "ams2",
        "sgp1",
        "lon1"
      ],
      "created_at":"2014-05-02T20:16:27Z"
    },
    {
      "id":3448674,
      "name":"CentOS 6.5 x32",
      "distribution":"CentOS",
      "slug":"centos-6-5-x32",
      "public":true,
      "regions":[
        "nyc2",
        "ams2",
        "sgp1",
        "ams1",
        "nyc1",
        "sfo1",
        "lon1"
      ],
      "created_at":"2014-05-02T20:16:38Z"
    },
    {
      "id":3935257,
      "name":"Django on Ubuntu 14.04",
      "distribution":"Ubuntu",
      "slug":"django",
      "public":true,
      "regions":[
        "nyc2",
        "ams1",
        "ams2",
        "nyc1",
        "sfo1",
        "sgp1",
        "lon1"
      ],
      "created_at":"2014-05-19T14:17:57Z"
    }
  ],
  "meta":{
    "total":35
  },
  "links":{
    "pages":{
      "last":"https://api.digitalocean.com/v2/images?page=2",
      "next":"https://api.digitalocean.com/v2/images?page=2"
    }
  }
}
